{"name":"list all users","id":"list-all-users-information;list-all-users","testSteps":[{"number":1,"description":"When he list all users","duration":13936,"startTime":"2025-04-23T08:24:36.609472300-05:00[America/Bogota]","result":"SUCCESS","precondition":false,"level":0,"children":[{"number":2,"description":"actor fetches all users","duration":12994,"startTime":"2025-04-23T08:24:37.550500300-05:00[America/Bogota]","result":"SUCCESS","precondition":false,"level":1,"children":[{"number":3,"description":"actor executes a GET on the resource /users","duration":12980,"startTime":"2025-04-23T08:24:37.557574800-05:00[America/Bogota]","result":"SUCCESS","precondition":false,"level":2,"children":[{"number":4,"description":"GET https://reqres.in/api/users\r","duration":1,"startTime":"2025-04-23T08:24:50.526764100-05:00[America/Bogota]","result":"SUCCESS","restQuery":{"method":"GET","path":"https://reqres.in/api/users\r","content":"\r","contentType":"null","requestHeaders":"Accept\u003d*/*\r","requestCookies":"\r","responseHeaders":"Date: Wed, 23 Apr 2025 13:24:55 GMT\r\nContent-Type: application/json; charset\u003dutf-8\r\nTransfer-Encoding: chunked\r\nConnection: keep-alive\r\nContent-Encoding: gzip\r\nCf-Ray: 934daf14dbf1da0f-MIA\r\nReport-To: {\"group\":\"heroku-nel\",\"max_age\":3600,\"endpoints\":[{\"url\":\"https://nel.heroku.com/reports?ts\u003d1745402954\u0026sid\u003dc4c9725f-1ab0-44d8-820f-430df2718e11\u0026s\u003dWTfiYi4NjFMqjQCCwXfl7akk%2FPc2GYcbjcnbq5hmS%2Fc%3D\"}]}\r\nReporting-Endpoints: heroku-nel\u003dhttps://nel.heroku.com/reports?ts\u003d1745402954\u0026sid\u003dc4c9725f-1ab0-44d8-820f-430df2718e11\u0026s\u003dWTfiYi4NjFMqjQCCwXfl7akk%2FPc2GYcbjcnbq5hmS%2Fc%3D\r\nNel: {\"report_to\":\"heroku-nel\",\"max_age\":3600,\"success_fraction\":0.005,\"failure_fraction\":0.05,\"response_headers\":[\"Via\"]}\r\nX-Powered-By: Express\r\nAccess-Control-Allow-Origin: *\r\nEtag: W/\"41e-bY3U72nulxuwNd/TmihMEHjLmek\"\r\nVia: 1.1 vegur\r\nCache-Control: max-age\u003d14400\r\nCf-Cache-Status: HIT\r\nAge: 3314\r\nVary: Accept-Encoding\r\nServer: cloudflare\r\nserver-timing: cfL4;desc\u003d\"?proto\u003dTCP\u0026rtt\u003d73068\u0026min_rtt\u003d65987\u0026rtt_var\u003d29803\u0026sent\u003d7\u0026recv\u003d7\u0026lost\u003d0\u0026retrans\u003d0\u0026sent_bytes\u003d3109\u0026recv_bytes\u003d663\u0026delivery_rate\u003d66376\u0026cwnd\u003d252\u0026unsent_bytes\u003d0\u0026cid\u003d68f77532dde3e766\u0026ts\u003d458\u0026x\u003d0\"\r","responseCookies":"\r","responseBody":"{\n    \"page\": 1,\n    \"per_page\": 6,\n    \"total\": 12,\n    \"total_pages\": 2,\n    \"data\": [\n        {\n            \"id\": 1,\n            \"email\": \"george.bluth@reqres.in\",\n            \"first_name\": \"George\",\n            \"last_name\": \"Bluth\",\n            \"avatar\": \"https://reqres.in/img/faces/1-image.jpg\"\n        },\n        {\n            \"id\": 2,\n            \"email\": \"janet.weaver@reqres.in\",\n            \"first_name\": \"Janet\",\n            \"last_name\": \"Weaver\",\n            \"avatar\": \"https://reqres.in/img/faces/2-image.jpg\"\n        },\n        {\n            \"id\": 3,\n            \"email\": \"emma.wong@reqres.in\",\n            \"first_name\": \"Emma\",\n            \"last_name\": \"Wong\",\n            \"avatar\": \"https://reqres.in/img/faces/3-image.jpg\"\n        },\n        {\n            \"id\": 4,\n            \"email\": \"eve.holt@reqres.in\",\n            \"first_name\": \"Eve\",\n            \"last_name\": \"Holt\",\n            \"avatar\": \"https://reqres.in/img/faces/4-image.jpg\"\n        },\n        {\n            \"id\": 5,\n            \"email\": \"charles.morris@reqres.in\",\n            \"first_name\": \"Charles\",\n            \"last_name\": \"Morris\",\n            \"avatar\": \"https://reqres.in/img/faces/5-image.jpg\"\n        },\n        {\n            \"id\": 6,\n            \"email\": \"tracey.ramos@reqres.in\",\n            \"first_name\": \"Tracey\",\n            \"last_name\": \"Ramos\",\n            \"avatar\": \"https://reqres.in/img/faces/6-image.jpg\"\n        }\n    ],\n    \"support\": {\n        \"url\": \"https://contentcaddy.io?utm_source\u003dreqres\u0026utm_medium\u003djson\u0026utm_campaign\u003dreferral\",\n        \"text\": \"Tired of writing endless social media content? Let Content Caddy generate it for you.\"\n    }\n}","statusCode":200},"precondition":false,"level":3}]}]}]},{"number":5,"description":"Then response status code is 200","duration":611,"startTime":"2025-04-23T08:24:50.546290100-05:00[America/Bogota]","result":"SUCCESS","precondition":false,"level":0,"children":[{"number":6,"description":"Status code should be correct","duration":280,"startTime":"2025-04-23T08:24:50.875039800-05:00[America/Bogota]","result":"SUCCESS","precondition":false,"level":1}]},{"number":7,"description":"And all 6 the expected users should be returned","duration":1347,"startTime":"2025-04-23T08:24:51.157638500-05:00[America/Bogota]","result":"SUCCESS","precondition":false,"level":0,"children":[{"number":8,"description":"Then all the expected users should be returned should be a collection with size (6)","duration":1301,"startTime":"2025-04-23T08:24:51.201636800-05:00[America/Bogota]","result":"SUCCESS","precondition":false,"level":1}]},{"number":9,"description":"When he list all users","duration":361,"startTime":"2025-04-23T08:24:52.518276400-05:00[America/Bogota]","result":"SUCCESS","precondition":false,"level":0,"children":[{"number":10,"description":"actor fetches all users","duration":334,"startTime":"2025-04-23T08:24:52.544519300-05:00[America/Bogota]","result":"SUCCESS","precondition":false,"level":1,"children":[{"number":11,"description":"actor executes a GET on the resource /users","duration":328,"startTime":"2025-04-23T08:24:52.548851600-05:00[America/Bogota]","result":"SUCCESS","precondition":false,"level":2,"children":[{"number":12,"description":"GET https://reqres.in/api/users\r","duration":0,"startTime":"2025-04-23T08:24:52.877777500-05:00[America/Bogota]","result":"SUCCESS","restQuery":{"method":"GET","path":"https://reqres.in/api/users\r","content":"\r","contentType":"null","requestHeaders":"Accept\u003d*/*\r","requestCookies":"\r","responseHeaders":"Date: Wed, 23 Apr 2025 13:24:57 GMT\r\nContent-Type: application/json; charset\u003dutf-8\r\nTransfer-Encoding: chunked\r\nConnection: keep-alive\r\nContent-Encoding: gzip\r\nCf-Ray: 934daf25fd67da57-MIA\r\nReport-To: {\"group\":\"heroku-nel\",\"max_age\":3600,\"endpoints\":[{\"url\":\"https://nel.heroku.com/reports?ts\u003d1745402954\u0026sid\u003dc4c9725f-1ab0-44d8-820f-430df2718e11\u0026s\u003dWTfiYi4NjFMqjQCCwXfl7akk%2FPc2GYcbjcnbq5hmS%2Fc%3D\"}]}\r\nReporting-Endpoints: heroku-nel\u003dhttps://nel.heroku.com/reports?ts\u003d1745402954\u0026sid\u003dc4c9725f-1ab0-44d8-820f-430df2718e11\u0026s\u003dWTfiYi4NjFMqjQCCwXfl7akk%2FPc2GYcbjcnbq5hmS%2Fc%3D\r\nNel: {\"report_to\":\"heroku-nel\",\"max_age\":3600,\"success_fraction\":0.005,\"failure_fraction\":0.05,\"response_headers\":[\"Via\"]}\r\nX-Powered-By: Express\r\nAccess-Control-Allow-Origin: *\r\nEtag: W/\"41e-bY3U72nulxuwNd/TmihMEHjLmek\"\r\nVia: 1.1 vegur\r\nCache-Control: max-age\u003d14400\r\nCf-Cache-Status: HIT\r\nAge: 3316\r\nVary: Accept-Encoding\r\nServer: cloudflare\r\nserver-timing: cfL4;desc\u003d\"?proto\u003dTCP\u0026rtt\u003d59715\u0026min_rtt\u003d59575\u0026rtt_var\u003d22620\u0026sent\u003d5\u0026recv\u003d6\u0026lost\u003d0\u0026retrans\u003d0\u0026sent_bytes\u003d3110\u0026recv_bytes\u003d663\u0026delivery_rate\u003d72164\u0026cwnd\u003d252\u0026unsent_bytes\u003d0\u0026cid\u003d5e9235e8507398b9\u0026ts\u003d101\u0026x\u003d0\"\r","responseCookies":"\r","responseBody":"{\n    \"page\": 1,\n    \"per_page\": 6,\n    \"total\": 12,\n    \"total_pages\": 2,\n    \"data\": [\n        {\n            \"id\": 1,\n            \"email\": \"george.bluth@reqres.in\",\n            \"first_name\": \"George\",\n            \"last_name\": \"Bluth\",\n            \"avatar\": \"https://reqres.in/img/faces/1-image.jpg\"\n        },\n        {\n            \"id\": 2,\n            \"email\": \"janet.weaver@reqres.in\",\n            \"first_name\": \"Janet\",\n            \"last_name\": \"Weaver\",\n            \"avatar\": \"https://reqres.in/img/faces/2-image.jpg\"\n        },\n        {\n            \"id\": 3,\n            \"email\": \"emma.wong@reqres.in\",\n            \"first_name\": \"Emma\",\n            \"last_name\": \"Wong\",\n            \"avatar\": \"https://reqres.in/img/faces/3-image.jpg\"\n        },\n        {\n            \"id\": 4,\n            \"email\": \"eve.holt@reqres.in\",\n            \"first_name\": \"Eve\",\n            \"last_name\": \"Holt\",\n            \"avatar\": \"https://reqres.in/img/faces/4-image.jpg\"\n        },\n        {\n            \"id\": 5,\n            \"email\": \"charles.morris@reqres.in\",\n            \"first_name\": \"Charles\",\n            \"last_name\": \"Morris\",\n            \"avatar\": \"https://reqres.in/img/faces/5-image.jpg\"\n        },\n        {\n            \"id\": 6,\n            \"email\": \"tracey.ramos@reqres.in\",\n            \"first_name\": \"Tracey\",\n            \"last_name\": \"Ramos\",\n            \"avatar\": \"https://reqres.in/img/faces/6-image.jpg\"\n        }\n    ],\n    \"support\": {\n        \"url\": \"https://contentcaddy.io?utm_source\u003dreqres\u0026utm_medium\u003djson\u0026utm_campaign\u003dreferral\",\n        \"text\": \"Tired of writing endless social media content? Let Content Caddy generate it for you.\"\n    }\n}","statusCode":200},"precondition":false,"level":3}]}]}]},{"number":13,"description":"Then response status code is 200","duration":4,"startTime":"2025-04-23T08:24:52.880322800-05:00[America/Bogota]","result":"SUCCESS","precondition":false,"level":0,"children":[{"number":14,"description":"Status code should be correct","duration":0,"startTime":"2025-04-23T08:24:52.882517200-05:00[America/Bogota]","result":"SUCCESS","precondition":false,"level":1}]},{"number":15,"description":"And all 3 the expected users should be returned","duration":74,"startTime":"2025-04-23T08:24:52.884514600-05:00[America/Bogota]","exception":{"errorType":"java.lang.AssertionError","message":"number of users expected is different from those returned - \nExpected: a collection with size \u003c3\u003e\n     but: collection size was \u003c6\u003e","stackTrace":[{"classLoaderName":"app","declaringClass":"com.wjbuelvas.stepdefinitions.WhenManagingUsers","methodName":"allTheExpectedUsersShouldBeReturned","fileName":"WhenManagingUsers.java","lineNumber":45,"format":1},{"declaringClass":"✽","methodName":"all 3 the expected users should be returned","fileName":"src/test/resources/features/list_all_users.feature","lineNumber":13,"format":0}]},"result":"FAILURE","precondition":false,"level":0,"children":[{"number":16,"description":"Then all the expected users should be returned should be a collection with size (3)","duration":60,"startTime":"2025-04-23T08:24:52.887514800-05:00[America/Bogota]","exception":{"errorType":"com.wjbuelvas.exceptions.UserAssertionErros","message":"number of users expected is different from those returned - \nExpected: a collection with size \u003c3\u003e\n     but: collection size was \u003c6\u003e","stackTrace":[{"classLoaderName":"app","declaringClass":"com.wjbuelvas.stepdefinitions.WhenManagingUsers","methodName":"allTheExpectedUsersShouldBeReturned","fileName":"WhenManagingUsers.java","lineNumber":45,"format":1},{"classLoaderName":"app","declaringClass":"cucumber.runner.PickleStepDefinitionMatch","methodName":"runStep","fileName":"PickleStepDefinitionMatch.java","lineNumber":50,"format":1},{"classLoaderName":"app","declaringClass":"cucumber.runner.TestStep","methodName":"executeStep","fileName":"TestStep.java","lineNumber":63,"format":1},{"classLoaderName":"app","declaringClass":"cucumber.runner.TestStep","methodName":"run","fileName":"TestStep.java","lineNumber":49,"format":1},{"classLoaderName":"app","declaringClass":"cucumber.runner.PickleStepTestStep","methodName":"run","fileName":"PickleStepTestStep.java","lineNumber":43,"format":1},{"classLoaderName":"app","declaringClass":"cucumber.runner.TestCase","methodName":"run","fileName":"TestCase.java","lineNumber":44,"format":1},{"classLoaderName":"app","declaringClass":"cucumber.runner.Runner","methodName":"runPickle","fileName":"Runner.java","lineNumber":40,"format":1}],"rootCause":{"errorType":"java.lang.AssertionError","message":"\nExpected: a collection with size \u003c3\u003e\n     but: collection size was \u003c6\u003e","stackTrace":[{"classLoaderName":"app","declaringClass":"com.wjbuelvas.stepdefinitions.WhenManagingUsers","methodName":"allTheExpectedUsersShouldBeReturned","fileName":"WhenManagingUsers.java","lineNumber":45,"format":1},{"classLoaderName":"app","declaringClass":"cucumber.runner.PickleStepDefinitionMatch","methodName":"runStep","fileName":"PickleStepDefinitionMatch.java","lineNumber":50,"format":1},{"classLoaderName":"app","declaringClass":"cucumber.runner.TestStep","methodName":"executeStep","fileName":"TestStep.java","lineNumber":63,"format":1},{"classLoaderName":"app","declaringClass":"cucumber.runner.TestStep","methodName":"run","fileName":"TestStep.java","lineNumber":49,"format":1},{"classLoaderName":"app","declaringClass":"cucumber.runner.PickleStepTestStep","methodName":"run","fileName":"PickleStepTestStep.java","lineNumber":43,"format":1},{"classLoaderName":"app","declaringClass":"cucumber.runner.TestCase","methodName":"run","fileName":"TestCase.java","lineNumber":44,"format":1},{"classLoaderName":"app","declaringClass":"cucumber.runner.Runner","methodName":"runPickle","fileName":"Runner.java","lineNumber":40,"format":1}]}},"result":"FAILURE","precondition":false,"level":1}]}],"userStory":{"id":"list-all-users-information","storyName":"list all users information","path":"src/test/resources/features/list_all_users.feature","narrative":"  I as a app need to list all users because i need show your information","type":"feature"},"featureTag":{"name":"Features/list all users information","type":"feature","displayName":"Features/list all users information"},"title":"list all users","tags":[{"name":"list all users information","type":"feature","displayName":"list all users information"}],"startTime":"2025-04-23T08:24:36.310443700-05:00[America/Bogota]","duration":16650,"testFailureCause":{"errorType":"com.wjbuelvas.exceptions.UserAssertionErros","message":"number of users expected is different from those returned - \nExpected: a collection with size \u003c3\u003e\n     but: collection size was \u003c6\u003e","stackTrace":[{"classLoaderName":"app","declaringClass":"com.wjbuelvas.stepdefinitions.WhenManagingUsers","methodName":"allTheExpectedUsersShouldBeReturned","fileName":"WhenManagingUsers.java","lineNumber":45,"format":1},{"classLoaderName":"app","declaringClass":"cucumber.runner.PickleStepDefinitionMatch","methodName":"runStep","fileName":"PickleStepDefinitionMatch.java","lineNumber":50,"format":1},{"classLoaderName":"app","declaringClass":"cucumber.runner.TestStep","methodName":"executeStep","fileName":"TestStep.java","lineNumber":63,"format":1},{"classLoaderName":"app","declaringClass":"cucumber.runner.TestStep","methodName":"run","fileName":"TestStep.java","lineNumber":49,"format":1},{"classLoaderName":"app","declaringClass":"cucumber.runner.PickleStepTestStep","methodName":"run","fileName":"PickleStepTestStep.java","lineNumber":43,"format":1},{"classLoaderName":"app","declaringClass":"cucumber.runner.TestCase","methodName":"run","fileName":"TestCase.java","lineNumber":44,"format":1},{"classLoaderName":"app","declaringClass":"cucumber.runner.Runner","methodName":"runPickle","fileName":"Runner.java","lineNumber":40,"format":1}],"rootCause":{"errorType":"java.lang.AssertionError","message":"\nExpected: a collection with size \u003c3\u003e\n     but: collection size was \u003c6\u003e","stackTrace":[{"classLoaderName":"app","declaringClass":"com.wjbuelvas.stepdefinitions.WhenManagingUsers","methodName":"allTheExpectedUsersShouldBeReturned","fileName":"WhenManagingUsers.java","lineNumber":45,"format":1},{"classLoaderName":"app","declaringClass":"cucumber.runner.PickleStepDefinitionMatch","methodName":"runStep","fileName":"PickleStepDefinitionMatch.java","lineNumber":50,"format":1},{"classLoaderName":"app","declaringClass":"cucumber.runner.TestStep","methodName":"executeStep","fileName":"TestStep.java","lineNumber":63,"format":1},{"classLoaderName":"app","declaringClass":"cucumber.runner.TestStep","methodName":"run","fileName":"TestStep.java","lineNumber":49,"format":1},{"classLoaderName":"app","declaringClass":"cucumber.runner.PickleStepTestStep","methodName":"run","fileName":"PickleStepTestStep.java","lineNumber":43,"format":1},{"classLoaderName":"app","declaringClass":"cucumber.runner.TestCase","methodName":"run","fileName":"TestCase.java","lineNumber":44,"format":1},{"classLoaderName":"app","declaringClass":"cucumber.runner.Runner","methodName":"runPickle","fileName":"Runner.java","lineNumber":40,"format":1}]}},"testFailureClassname":"com.wjbuelvas.exceptions.UserAssertionErros","testFailureMessage":"number of users expected is different from those returned - \nExpected: a collection with size \u003c3\u003e\n     but: collection size was \u003c6\u003e","testFailureSummary":"FAILURE;com.wjbuelvas.exceptions.UserAssertionErros;number of users expected is different from those returned - \nExpected: a collection with size \u003c3\u003e\n     but: collection size was \u003c6\u003e;WhenManagingUsers.java","projectKey":"","annotatedResult":"FAILURE","manual":false,"testSource":"Cucumber","actors":[{"name":"actor","can":["browse the web","call an API at https://reqres.in/api"]}],"result":"FAILURE"}